{
  "minifier": {
    "name": "standard-minifier-js",
    "version": "2.6.0"
  },
  "totalMinifiedBytes": 4299148,
  "totalMinifiedGzipBytes": 1082969,
  "minifiedBytesByPackage": {
    "packages/meteor.js": 9504,
    "packages/coffeescript.js": 32,
    "packages/blaze-html-templates.js": 40,
    "packages/modules-runtime.js": 4269,
    "packages/modules.js": [
      928375,
      {
        "node_modules": {
          "meteor": {
            "modules": {
              "client.js": 126,
              "css.js": 263,
              "install-packages.js": 5718,
              "process.js": 415,
              "reify.js": 73,
              "stubs.js": 99,
              "node_modules": {
                "reify": {
                  "lib": {
                    "runtime": {
                      "index.js": 911,
                      "utils.js": 1222,
                      "entry.js": 3047
                    }
                  }
                }
              }
            }
          },
          "jquery": {
            "package.json": 82,
            "dist": {
              "jquery.js": 85886
            }
          },
          "moment": {
            "package.json": 80,
            "moment.js": 60620
          },
          "lodash": {
            "package.json": 79,
            "lodash.js": 72758
          },
          "underscore": {
            "package.json": 120,
            "modules": {
              "index-all.js": 102,
              "index-default.js": 138,
              "index.js": 6002,
              "_setup.js": 994,
              "restArguments.js": 404,
              "isObject.js": 113,
              "isNull.js": 74,
              "isUndefined.js": 76,
              "isBoolean.js": 160,
              "isElement.js": 86,
              "isString.js": 99,
              "_tagTester.js": 171,
              "isNumber.js": 99,
              "isDate.js": 97,
              "isRegExp.js": 99,
              "isError.js": 98,
              "isSymbol.js": 99,
              "isArrayBuffer.js": 104,
              "isDataView.js": 327,
              "isFunction.js": 307,
              "_stringTagBug.js": 256,
              "_hasObjectTag.js": 99,
              "isArray.js": 151,
              "isArguments.js": 219,
              "_has.js": 143,
              "isFinite.js": 195,
              "isNaN.js": 169,
              "isTypedArray.js": 435,
              "constant.js": 86,
              "_isBufferLike.js": 158,
              "_createSizePropertyCheck.js": 182,
              "_getByteLength.js": 109,
              "_shallowProperty.js": 105,
              "isEmpty.js": 386,
              "_getLength.js": 105,
              "keys.js": 372,
              "_collectNonEnumProps.js": 547,
              "isMatch.js": 236,
              "isEqual.js": 1936,
              "underscore.js": 361,
              "_toBufferView.js": 170,
              "isMap.js": 238,
              "_methodFingerprint.js": 537,
              "allKeys.js": 284,
              "isWeakMap.js": 246,
              "isSet.js": 238,
              "isWeakSet.js": 100,
              "values.js": 175,
              "pairs.js": 182,
              "invert.js": 172,
              "functions.js": 169,
              "extend.js": 142,
              "_createAssigner.js": 269,
              "extendOwn.js": 139,
              "defaults.js": 145,
              "create.js": 190,
              "_baseCreate.js": 296,
              "clone.js": 234,
              "tap.js": 74,
              "get.js": 238,
              "_toPath.js": 151,
              "toPath.js": 184,
              "_deepGet.js": 138,
              "has.js": 238,
              "mapObject.js": 239,
              "_cb.js": 258,
              "_baseIteratee.js": 444,
              "identity.js": 67,
              "matcher.js": 198,
              "property.js": 194,
              "_optimizeCb.js": 310,
              "iteratee.js": 194,
              "noop.js": 58,
              "propertyOf.js": 189,
              "times.js": 192,
              "random.js": 122,
              "now.js": 84,
              "escape.js": 144,
              "_createEscaper.js": 262,
              "_escapeMap.js": 110,
              "unescape.js": 146,
              "_unescapeMap.js": 136,
              "templateSettings.js": 192,
              "template.js": 1144,
              "result.js": 311,
              "uniqueId.js": 95,
              "chain.js": 142,
              "partial.js": 430,
              "_executeBound.js": 258,
              "bind.js": 343,
              "bindAll.js": 336,
              "_flatten.js": 497,
              "_isArrayLike.js": 154,
              "memoize.js": 245,
              "delay.js": 170,
              "defer.js": 184,
              "throttle.js": 475,
              "debounce.js": 411,
              "wrap.js": 123,
              "negate.js": 108,
              "compose.js": 180,
              "after.js": 119,
              "before.js": 143,
              "once.js": 135,
              "findKey.js": 227,
              "findIndex.js": 109,
              "_createPredicateIndexFinder.js": 259,
              "findLastIndex.js": 110,
              "sortedIndex.js": 255,
              "indexOf.js": 200,
              "_createIndexFinder.js": 470,
              "lastIndexOf.js": 154,
              "find.js": 268,
              "findWhere.js": 168,
              "each.js": 341,
              "map.js": 311,
              "reduce.js": 95,
              "_createReduce.js": 435,
              "reduceRight.js": 96,
              "filter.js": 220,
              "reject.js": 217,
              "every.js": 308,
              "some.js": 307,
              "contains.js": 272,
              "invoke.js": 471,
              "pluck.js": 168,
              "where.js": 170,
              "max.js": 495,
              "min.js": 491,
              "shuffle.js": 122,
              "sample.js": 488,
              "sortBy.js": 436,
              "groupBy.js": 176,
              "_group.js": 254,
              "indexBy.js": 112,
              "countBy.js": 168,
              "partition.js": 125,
              "toArray.js": 510,
              "size.js": 197,
              "pick.js": 530,
              "_keyInObj.js": 76,
              "omit.js": 497,
              "first.js": 191,
              "initial.js": 165,
              "last.js": 209,
              "rest.js": 140,
              "compact.js": 126,
              "flatten.js": 127,
              "without.js": 172,
              "difference.js": 300,
              "uniq.js": 446,
              "union.js": 217,
              "intersection.js": 300,
              "unzip.js": 268,
              "zip.js": 138,
              "object.js": 187,
              "range.js": 185,
              "chunk.js": 198,
              "mixin.js": 436,
              "_chainResult.js": 143,
              "underscore-array-methods.js": 618
            }
          },
          "detect-browser": {
            "package.json": 105,
            "es": {
              "index.js": 4124
            }
          },
          "@babel": {
            "runtime": {
              "helpers": {
                "objectSpread2.js": 633,
                "defineProperty.js": 150,
                "objectWithoutProperties.js": 313,
                "objectWithoutPropertiesLoose.js": 164,
                "esm": {
                  "typeof.js": 277,
                  "objectSpread.js": 433,
                  "defineProperty.js": 164,
                  "classCallCheck.js": 138,
                  "createClass.js": 267,
                  "possibleConstructorReturn.js": 232,
                  "assertThisInitialized.js": 167,
                  "getPrototypeOf.js": 175,
                  "inherits.js": 325,
                  "setPrototypeOf.js": 138
                }
              },
              "package.json": 482
            }
          },
          "meteor-node-stubs": {
            "package.json": 87,
            "index.js": 392,
            "map.json": 948,
            "deps": {
              "tty.js": 34,
              "fs.js": 14,
              "path.js": 35,
              "os.js": 44,
              "child_process.js": 14,
              "crypto.js": 41,
              "stream.js": 37,
              "vm.js": 33,
              "http.js": 31
            },
            "node_modules": {
              "tty-browserify": {
                "package.json": 84,
                "index.js": 209
              },
              "path-browserify": {
                "package.json": 85,
                "index.js": 1972
              },
              "os-browserify": {
                "browser.js": 625
              },
              "buffer": {
                "package.json": 76,
                "index.js": 20122
              },
              "base64-js": {
                "package.json": 79,
                "index.js": 1446
              },
              "ieee754": {
                "package.json": 78,
                "index.js": 883
              },
              "isarray": {
                "package.json": 77,
                "index.js": 108
              },
              "crypto-browserify": {
                "package.json": 92,
                "index.js": 1874
              },
              "randombytes": {
                "package.json": 102,
                "browser.js": 511
              },
              "safe-buffer": {
                "package.json": 81,
                "index.js": 739
              },
              "create-hash": {
                "package.json": 102,
                "browser.js": 396,
                "md5.js": 92
              },
              "inherits": {
                "package.json": 115,
                "inherits_browser.js": 319
              },
              "md5.js": {
                "package.json": 76,
                "index.js": 3188
              },
              "hash-base": {
                "package.json": 79,
                "index.js": 1434
              },
              "stream-browserify": {
                "package.json": 87,
                "index.js": 1116
              },
              "events": {
                "package.json": 79,
                "events.js": 3566
              },
              "readable-stream": {
                "package.json": 300,
                "readable.js": 82,
                "writable.js": 82,
                "duplex.js": 80,
                "lib": {
                  "internal": {
                    "streams": {
                      "stream.js": 101,
                      "stream-browser.js": 53,
                      "BufferList.js": 1270,
                      "destroy.js": 960
                    }
                  },
                  "_stream_readable.js": 10733,
                  "_stream_duplex.js": 1273,
                  "_stream_writable.js": 7264,
                  "_stream_transform.js": 2024,
                  "_stream_passthrough.js": 254
                },
                "readable-browser.js": 257,
                "node_modules": {
                  "inherits": {
                    "package.json": 115,
                    "inherits_browser.js": 319
                  }
                },
                "writable-browser.js": 59,
                "duplex-browser.js": 57,
                "transform.js": 54,
                "passthrough.js": 56
              },
              "process-nextick-args": {
                "package.json": 90,
                "index.js": 701
              },
              "core-util-is": {
                "package.json": 85,
                "lib": {
                  "util.js": 981
                }
              },
              "util": {
                "package.json": 141,
                "support": {
                  "isBuffer.js": 78,
                  "isBufferBrowser.js": 158
                },
                "util.js": 6106
              },
              "util-deprecate": {
                "package.json": 104,
                "browser.js": 397
              },
              "string_decoder": {
                "package.json": 97,
                "lib": {
                  "string_decoder.js": 3589
                }
              },
              "ripemd160": {
                "package.json": 78,
                "index.js": 2758
              },
              "sha.js": {
                "package.json": 61,
                "index.js": 292,
                "sha.js": 1077,
                "hash.js": 982,
                "sha1.js": 1113,
                "sha224.js": 623,
                "sha256.js": 2153,
                "sha384.js": 809,
                "sha512.js": 4407
              },
              "cipher-base": {
                "package.json": 81,
                "index.js": 1404
              },
              "create-hmac": {
                "package.json": 104,
                "browser.js": 912,
                "legacy.js": 568
              },
              "browserify-sign": {
                "algos.js": 59,
                "browser": {
                  "algorithms.json": 1938,
                  "index.js": 1342,
                  "sign.js": 2319,
                  "curves.json": 181,
                  "verify.js": 1409
                },
                "package.json": 112
              },
              "pbkdf2": {
                "package.json": 155,
                "index.js": 64,
                "lib": {
                  "sync.js": 73,
                  "async.js": 1407,
                  "precondition.js": 449,
                  "default-encoding.js": 138,
                  "sync-browser.js": 1250
                },
                "browser.js": 71
              },
              "browserify-cipher": {
                "package.json": 108,
                "browser.js": 1070
              },
              "browserify-des": {
                "package.json": 84,
                "index.js": 669,
                "modes.js": 199
              },
              "des.js": {
                "package.json": 78,
                "lib": {
                  "des.js": 144,
                  "des": {
                    "utils.js": 3337,
                    "cipher.js": 1950,
                    "des.js": 1637,
                    "cbc.js": 850,
                    "ede.js": 819
                  }
                }
              },
              "minimalistic-assert": {
                "package.json": 89,
                "index.js": 178
              },
              "browserify-aes": {
                "browser.js": 327,
                "encrypter.js": 1759,
                "modes": {
                  "index.js": 221,
                  "ecb.js": 132,
                  "cbc.js": 226,
                  "cfb.js": 479,
                  "cfb8.js": 274,
                  "cfb1.js": 444,
                  "ofb.js": 284,
                  "ctr.js": 542,
                  "list.json": 1839
                },
                "incr32.js": 147,
                "authCipher.js": 2029,
                "aes.js": 2904,
                "ghash.js": 1093,
                "streamCipher.js": 416,
                "decrypter.js": 1955,
                "package.json": 105
              },
              "buffer-xor": {
                "package.json": 80,
                "index.js": 135
              },
              "evp_bytestokey": {
                "package.json": 84,
                "index.js": 580
              },
              "diffie-hellman": {
                "package.json": 105,
                "browser.js": 592,
                "lib": {
                  "generatePrime.js": 1016,
                  "primes.json": 6963,
                  "dh.js": 2058
                }
              },
              "bn.js": {
                "package.json": 97,
                "lib": {
                  "bn.js": 43393
                }
              },
              "miller-rabin": {
                "package.json": 83,
                "lib": {
                  "mr.js": 1281
                }
              },
              "brorand": {
                "package.json": 97,
                "index.js": 921
              },
              "browserify-rsa": {
                "package.json": 84,
                "index.js": 763
              },
              "elliptic": {
                "package.json": 1310,
                "lib": {
                  "elliptic.js": 242,
                  "elliptic": {
                    "utils.js": 1123,
                    "curve": {
                      "index.js": 121,
                      "base.js": 4652,
                      "short.js": 12704,
                      "mont.js": 2657,
                      "edwards.js": 6194
                    },
                    "curves.js": 5109,
                    "precomputed": {
                      "secp256k1.js": 26155
                    },
                    "ec": {
                      "index.js": 3193,
                      "key.js": 1689,
                      "signature.js": 1503
                    },
                    "eddsa": {
                      "index.js": 1821,
                      "key.js": 1382,
                      "signature.js": 923
                    }
                  }
                }
              },
              "minimalistic-crypto-utils": {
                "package.json": 99,
                "lib": {
                  "utils.js": 621
                }
              },
              "hash.js": {
                "package.json": 80,
                "lib": {
                  "hash.js": 289,
                  "hash": {
                    "utils.js": 2670,
                    "common.js": 1424,
                    "sha.js": 145,
                    "sha": {
                      "1.js": 953,
                      "common.js": 500,
                      "224.js": 435,
                      "256.js": 1890,
                      "384.js": 526,
                      "512.js": 4502
                    },
                    "ripemd.js": 1973,
                    "hmac.js": 762
                  }
                },
                "node_modules": {
                  "inherits": {
                    "package.json": 115,
                    "inherits_browser.js": 319
                  }
                }
              },
              "hmac-drbg": {
                "package.json": 87,
                "lib": {
                  "hmac-drbg.js": 1805
                }
              },
              "parse-asn1": {
                "package.json": 80,
                "index.js": 2239,
                "asn1.js": 2284,
                "certificate.js": 1604,
                "aesid.json": 506,
                "fixProc.js": 719
              },
              "asn1.js": {
                "package.json": 81,
                "lib": {
                  "asn1.js": 198,
                  "asn1": {
                    "api.js": 911,
                    "base": {
                      "index.js": 167,
                      "reporter.js": 1574,
                      "buffer.js": 1841,
                      "node.js": 9058
                    },
                    "constants": {
                      "index.js": 159,
                      "der.js": 523
                    },
                    "decoders": {
                      "index.js": 58,
                      "der.js": 3970,
                      "pem.js": 613
                    },
                    "encoders": {
                      "index.js": 58,
                      "der.js": 4434,
                      "pem.js": 348
                    }
                  }
                }
              },
              "vm-browserify": {
                "package.json": 83,
                "index.js": 2186
              },
              "indexof": {
                "package.json": 61,
                "index.js": 142
              },
              "create-ecdh": {
                "package.json": 102,
                "browser.js": 1676
              },
              "public-encrypt": {
                "package.json": 105,
                "browser.js": 222,
                "publicEncrypt.js": 1131,
                "mgf.js": 262,
                "xor.js": 96,
                "withPublic.js": 161,
                "privateDecrypt.js": 1340
              },
              "randomfill": {
                "package.json": 101,
                "browser.js": 1656
              },
              "stream-http": {
                "package.json": 81,
                "index.js": 949,
                "lib": {
                  "request.js": 4449,
                  "capability.js": 904,
                  "response.js": 2883
                }
              },
              "to-arraybuffer": {
                "package.json": 84,
                "index.js": 412
              },
              "xtend": {
                "package.json": 76,
                "immutable.js": 191
              },
              "builtin-status-codes": {
                "package.json": 111,
                "browser.js": 1431
              },
              "url": {
                "package.json": 74,
                "url.js": 7530,
                "node_modules": {
                  "punycode": {
                    "package.json": 81,
                    "punycode.js": 2714
                  }
                },
                "util.js": 229
              },
              "querystring": {
                "package.json": 65,
                "index.js": 95,
                "decode.js": 548,
                "encode.js": 533
              }
            },
            "wrappers": {
              "crypto.js": 99
            }
          },
          "process": {
            "package.json": 104,
            "browser.js": 1688
          },
          "react": {
            "package.json": 77,
            "index.js": 76,
            "cjs": {
              "react.production.min.js": 6455,
              "react.development.js": 270
            }
          },
          "object-assign": {
            "package.json": 67,
            "index.js": 998
          },
          "prop-types": {
            "checkPropTypes.js": 136,
            "lib": {
              "ReactPropTypesSecret.js": 96
            }
          },
          "bootstrap-tagsinput": {
            "package.json": 108,
            "dist": {
              "bootstrap-tagsinput.js": 9132
            }
          },
          "bootstrap": {
            "dist": {
              "js": {
                "bootstrap.js": 39850
              }
            }
          },
          "fibers": {
            "package.json": 74,
            "fibers.js": 1671
          },
          "detect-libc": {
            "package.json": 91,
            "lib": {
              "detect-libc.js": 1040
            }
          },
          "clone": {
            "package.json": 75,
            "clone.js": 2333
          },
          "@steedos": {
            "i18n": {
              "package.json": 95,
              "lib": {
                "index.js": 2137,
                "i18n": {
                  "i18n.js": 4017,
                  "i18n.app.js": 1524
                },
                "translations": {
                  "index.js": 1696,
                  "objectTranslation.js": 5854,
                  "translation.js": 3317,
                  "templates": {
                    "objectTranslation.js": 1399,
                    "translation.js": 984
                  }
                }
              },
              "node_modules": {
                "i18next": {
                  "package.json": 122,
                  "dist": {
                    "esm": {
                      "i18next.js": 41449
                    }
                  }
                },
                "underscore": {
                  "package.json": 120,
                  "modules": {
                    "index-all.js": 102,
                    "index-default.js": 138,
                    "index.js": 6002,
                    "_setup.js": 994,
                    "restArguments.js": 404,
                    "isObject.js": 113,
                    "isNull.js": 74,
                    "isUndefined.js": 76,
                    "isBoolean.js": 160,
                    "isElement.js": 86,
                    "isString.js": 99,
                    "_tagTester.js": 171,
                    "isNumber.js": 99,
                    "isDate.js": 97,
                    "isRegExp.js": 99,
                    "isError.js": 98,
                    "isSymbol.js": 99,
                    "isArrayBuffer.js": 104,
                    "isDataView.js": 327,
                    "isFunction.js": 307,
                    "_stringTagBug.js": 256,
                    "_hasObjectTag.js": 99,
                    "isArray.js": 151,
                    "isArguments.js": 219,
                    "_has.js": 143,
                    "isFinite.js": 195,
                    "isNaN.js": 169,
                    "isTypedArray.js": 435,
                    "constant.js": 86,
                    "_isBufferLike.js": 158,
                    "_createSizePropertyCheck.js": 182,
                    "_getByteLength.js": 109,
                    "_shallowProperty.js": 105,
                    "isEmpty.js": 386,
                    "_getLength.js": 105,
                    "keys.js": 372,
                    "_collectNonEnumProps.js": 551,
                    "isMatch.js": 236,
                    "isEqual.js": 1936,
                    "underscore.js": 361,
                    "_toBufferView.js": 170,
                    "isMap.js": 238,
                    "_methodFingerprint.js": 537,
                    "allKeys.js": 284,
                    "isWeakMap.js": 246,
                    "isSet.js": 238,
                    "isWeakSet.js": 100,
                    "values.js": 175,
                    "pairs.js": 182,
                    "invert.js": 172,
                    "functions.js": 169,
                    "extend.js": 142,
                    "_createAssigner.js": 269,
                    "extendOwn.js": 139,
                    "defaults.js": 145,
                    "create.js": 190,
                    "_baseCreate.js": 296,
                    "clone.js": 234,
                    "tap.js": 74,
                    "get.js": 238,
                    "_toPath.js": 151,
                    "toPath.js": 184,
                    "_deepGet.js": 138,
                    "has.js": 238,
                    "mapObject.js": 239,
                    "_cb.js": 258,
                    "_baseIteratee.js": 444,
                    "identity.js": 67,
                    "matcher.js": 198,
                    "property.js": 194,
                    "_optimizeCb.js": 310,
                    "iteratee.js": 194,
                    "noop.js": 58,
                    "propertyOf.js": 189,
                    "times.js": 192,
                    "random.js": 122,
                    "now.js": 84,
                    "escape.js": 144,
                    "_createEscaper.js": 262,
                    "_escapeMap.js": 110,
                    "unescape.js": 146,
                    "_unescapeMap.js": 136,
                    "templateSettings.js": 192,
                    "template.js": 1144,
                    "result.js": 311,
                    "uniqueId.js": 95,
                    "chain.js": 142,
                    "partial.js": 430,
                    "_executeBound.js": 258,
                    "bind.js": 343,
                    "bindAll.js": 336,
                    "_flatten.js": 497,
                    "_isArrayLike.js": 154,
                    "memoize.js": 245,
                    "delay.js": 170,
                    "defer.js": 184,
                    "throttle.js": 475,
                    "debounce.js": 411,
                    "wrap.js": 123,
                    "negate.js": 108,
                    "compose.js": 180,
                    "after.js": 119,
                    "before.js": 143,
                    "once.js": 135,
                    "findKey.js": 227,
                    "findIndex.js": 109,
                    "_createPredicateIndexFinder.js": 259,
                    "findLastIndex.js": 110,
                    "sortedIndex.js": 255,
                    "indexOf.js": 200,
                    "_createIndexFinder.js": 470,
                    "lastIndexOf.js": 154,
                    "find.js": 268,
                    "findWhere.js": 168,
                    "each.js": 341,
                    "map.js": 311,
                    "reduce.js": 95,
                    "_createReduce.js": 435,
                    "reduceRight.js": 96,
                    "filter.js": 220,
                    "reject.js": 217,
                    "every.js": 308,
                    "some.js": 307,
                    "contains.js": 272,
                    "invoke.js": 471,
                    "pluck.js": 168,
                    "where.js": 170,
                    "max.js": 495,
                    "min.js": 491,
                    "shuffle.js": 122,
                    "sample.js": 480,
                    "toArray.js": 510,
                    "sortBy.js": 436,
                    "groupBy.js": 176,
                    "_group.js": 254,
                    "indexBy.js": 112,
                    "countBy.js": 168,
                    "partition.js": 125,
                    "size.js": 197,
                    "pick.js": 530,
                    "_keyInObj.js": 76,
                    "omit.js": 497,
                    "first.js": 191,
                    "initial.js": 165,
                    "last.js": 209,
                    "rest.js": 140,
                    "compact.js": 126,
                    "flatten.js": 127,
                    "without.js": 172,
                    "difference.js": 300,
                    "uniq.js": 446,
                    "union.js": 217,
                    "intersection.js": 300,
                    "unzip.js": 268,
                    "zip.js": 138,
                    "object.js": 187,
                    "range.js": 185,
                    "chunk.js": 198,
                    "mixin.js": 436,
                    "_chainResult.js": 143,
                    "underscore-array-methods.js": 618
                  }
                }
              }
            },
            "cachers": {
              "package.json": 98,
              "lib": {
                "index.js": 412,
                "memory.js": 501,
                "memory-lru.js": 742
              },
              "node_modules": {
                "lru-cache": {
                  "package.json": 80,
                  "index.js": 13540
                }
              }
            }
          },
          "tslib": {
            "package.json": 97,
            "tslib.es6.js": 7888
          },
          "i18next-sprintf-postprocessor": {
            "package.json": 101,
            "index.js": 66,
            "dist": {
              "commonjs": {
                "index.js": 651,
                "sprintf.js": 2898
              }
            }
          },
          "mkdirp": {
            "package.json": 76,
            "index.js": 490,
            "lib": {
              "opts-arg.js": 522,
              "path-arg.js": 447,
              "mkdirp-native.js": 540,
              "find-made.js": 330,
              "mkdirp-manual.js": 744,
              "use-native.js": 274
            }
          },
          "util": {
            "package.json": 141,
            "support": {
              "isBuffer.js": 47,
              "isBufferBrowser.js": 158
            },
            "util.js": 6106,
            "node_modules": {
              "inherits": {
                "package.json": 115,
                "inherits_browser.js": 319
              }
            }
          },
          "cookies": {
            "package.json": 82,
            "lib": {
              "cookies.js": 3373
            }
          },
          "depd": {
            "package.json": 89,
            "lib": {
              "browser": {
                "index.js": 734
              }
            }
          },
          "keygrip": {
            "package.json": 61,
            "index.js": 918
          },
          "url-search-params-polyfill": {
            "package.json": 96,
            "index.js": 3089
          },
          "formBuilder": {
            "package.json": 3860,
            "dist": {
              "form-builder.min.js": 2
            }
          },
          "marked": {
            "package.json": 144,
            "lib": {
              "marked.umd.js": 48667
            }
          },
          "push.js": {
            "package.json": 85,
            "bin": {
              "push.min.js": 12879
            }
          }
        }
      }
    ],
    "packages/modern-browsers.js": 35,
    "packages/babel-compiler.js": 34,
    "packages/ecmascript.js": 30,
    "packages/ecmascript-runtime.js": 38,
    "packages/babel-runtime.js": [
      949,
      {
        "node_modules": {
          "meteor": {
            "babel-runtime": {
              "babel-runtime.js": 631
            }
          }
        }
      }
    ],
    "packages/promise.js": [
      1339,
      {
        "node_modules": {
          "meteor": {
            "promise": {
              "modern.js": 25,
              "client.js": 73,
              "extensions.js": 403,
              "node_modules": {
                "meteor-promise": {
                  "package.json": 121,
                  "promise_client.js": 268
                }
              }
            }
          }
        }
      }
    ],
    "packages/fetch.js": [
      408,
      {
        "node_modules": {
          "meteor": {
            "fetch": {
              "modern.js": 94
            }
          }
        }
      }
    ],
    "packages/dynamic-import.js": [
      4862,
      {
        "node_modules": {
          "meteor": {
            "dynamic-import": {
              "client.js": 1631,
              "cache.js": 1952,
              "common.js": 62,
              "dynamic-versions.js": 816
            }
          }
        }
      }
    ],
    "packages/es5-shim.js": 28,
    "packages/ecmascript-runtime-client.js": [
      22389,
      {
        "node_modules": {
          "meteor": {
            "ecmascript-runtime-client": {
              "modern.js": 766,
              "node_modules": {
                "core-js": {
                  "modules": {
                    "es.object.get-own-property-descriptors.js": 414,
                    "es.object.is.js": 108,
                    "es.function.name.js": 272,
                    "es.number.is-finite.js": 120,
                    "es.number.is-nan.js": 107,
                    "es.array.flat.js": 404,
                    "es.array.flat-map.js": 401,
                    "es.object.from-entries.js": 232,
                    "es.string.pad-start.js": 256,
                    "es.string.pad-end.js": 252,
                    "es.string.trim-start.js": 260,
                    "es.string.trim-end.js": 253,
                    "es.symbol.async-iterator.js": 80
                  },
                  "internals": {
                    "export.js": 612,
                    "global.js": 264,
                    "object-get-own-property-descriptor.js": 428,
                    "descriptors.js": 144,
                    "fails.js": 76,
                    "object-property-is-enumerable.js": 178,
                    "create-property-descriptor.js": 113,
                    "to-indexed-object.js": 140,
                    "indexed-object.js": 225,
                    "classof-raw.js": 88,
                    "require-object-coercible.js": 104,
                    "to-primitive.js": 354,
                    "is-object.js": 96,
                    "has.js": 136,
                    "to-object.js": 110,
                    "ie8-dom-define.js": 231,
                    "document-create-element.js": 173,
                    "create-non-enumerable-property.js": 229,
                    "object-define-property.js": 359,
                    "an-object.js": 140,
                    "redefine.js": 684,
                    "set-global.js": 163,
                    "inspect-source.js": 185,
                    "shared-store.js": 131,
                    "internal-state.js": 968,
                    "native-weak-map.js": 153,
                    "shared-key.js": 133,
                    "shared.js": 259,
                    "is-pure.js": 31,
                    "uid.js": 131,
                    "hidden-keys.js": 31,
                    "copy-constructor-properties.js": 279,
                    "own-keys.js": 284,
                    "get-built-in.js": 222,
                    "path.js": 61,
                    "object-get-own-property-names.js": 187,
                    "object-keys-internal.js": 306,
                    "array-includes.js": 363,
                    "to-length.js": 125,
                    "to-integer.js": 104,
                    "to-absolute-index.js": 138,
                    "enum-bug-keys.js": 138,
                    "object-get-own-property-symbols.js": 49,
                    "is-forced.js": 279,
                    "create-property.js": 226,
                    "same-value.js": 96,
                    "number-is-finite.js": 133,
                    "flatten-into-array.js": 399,
                    "is-array.js": 114,
                    "function-bind-context.js": 358,
                    "a-function.js": 122,
                    "array-species-create.js": 320,
                    "well-known-symbol.js": 359,
                    "native-symbol.js": 232,
                    "engine-v8-version.js": 266,
                    "engine-user-agent.js": 96,
                    "use-symbol-as-uid.js": 116,
                    "iterate.js": 885,
                    "is-array-iterator-method.js": 190,
                    "iterators.js": 31,
                    "get-iterator-method.js": 204,
                    "classof.js": 435,
                    "to-string-tag-support.js": 124,
                    "iterator-close.js": 130,
                    "string-pad.js": 378,
                    "string-repeat.js": 280,
                    "string-pad-webkit-bug.js": 145,
                    "string-trim.js": 305,
                    "whitespaces.js": 107,
                    "string-trim-forced.js": 181,
                    "define-well-known-symbol.js": 245,
                    "well-known-symbol-wrapped.js": 64
                  }
                }
              }
            }
          }
        }
      }
    ],
    "packages/base64.js": [
      1803,
      {
        "node_modules": {
          "meteor": {
            "base64": {
              "base64.js": 1480
            }
          }
        }
      }
    ],
    "packages/ejson.js": [
      6718,
      {
        "node_modules": {
          "meteor": {
            "ejson": {
              "ejson.js": 4724,
              "stringify.js": 905,
              "utils.js": 725
            }
          }
        }
      }
    ],
    "packages/check.js": [
      6100,
      {
        "node_modules": {
          "meteor": {
            "check": {
              "match.js": 5426,
              "isPlainObject.js": 310
            }
          }
        }
      }
    ],
    "packages/ddp-rate-limiter.js": 36,
    "packages/random.js": [
      3532,
      {
        "node_modules": {
          "meteor": {
            "random": {
              "random.js": 3218
            }
          }
        }
      }
    ],
    "packages/tracker.js": [
      4472,
      {
        "node_modules": {
          "meteor": {
            "tracker": {
              "tracker.js": 4141
            }
          }
        }
      }
    ],
    "packages/retry.js": [
      1046,
      {
        "node_modules": {
          "meteor": {
            "retry": {
              "retry.js": 710
            }
          }
        }
      }
    ],
    "packages/ddp-common.js": [
      4561,
      {
        "node_modules": {
          "meteor": {
            "ddp-common": {
              "namespace.js": 18,
              "heartbeat.js": 1289,
              "utils.js": 1350,
              "method_invocation.js": 487,
              "random_stream.js": 637
            }
          }
        }
      }
    ],
    "packages/email.js": 25,
    "packages/underscore.js": 14427,
    "packages/url.js": [
      1068,
      {
        "node_modules": {
          "meteor": {
            "url": {
              "url_client.js": 154,
              "url_common.js": 607
            }
          }
        }
      }
    ],
    "packages/http.js": [
      3400,
      {
        "node_modules": {
          "meteor": {
            "http": {
              "httpcall_client.js": 2122,
              "httpcall_common.js": 934
            }
          }
        }
      }
    ],
    "packages/jquery.js": [
      98052,
      {
        "node_modules": {
          "meteor": {
            "jquery": {
              "main.js": 136,
              "jquery.js": 97602
            }
          }
        }
      }
    ],
    "packages/logging.js": [
      28017,
      {
        "node_modules": {
          "meteor": {
            "logging": {
              "logging.js": 3234,
              "node_modules": {
                "cli-color": {
                  "package.json": 74,
                  "lib": {
                    "index.js": 2486,
                    "_xterm-match.js": 500,
                    "_xterm-colors.js": 2347
                  },
                  "node_modules": {
                    "es5-ext": {
                      "lib": {
                        "Object": {
                          "descriptor.js": 872,
                          "is-callable.js": 249,
                          "valid-callable.js": 141,
                          "valid-value.js": 126,
                          "copy.js": 365,
                          "is-plain-object.js": 212,
                          "for-each.js": 68,
                          "_iterate.js": 342,
                          "extend.js": 277,
                          "map.js": 217,
                          "reduce.js": 470,
                          "is.js": 96,
                          "is-empty.js": 148
                        },
                        "String": {
                          "is-string.js": 189,
                          "prototype": {
                            "contains.js": 123,
                            "repeat.js": 178
                          }
                        },
                        "Number": {
                          "to-uint.js": 102,
                          "to-int.js": 166,
                          "is-nan.js": 66,
                          "is-number.js": 179
                        },
                        "Math": {
                          "sign.js": 100
                        },
                        "Error": {
                          "custom.js": 333
                        },
                        "Array": {
                          "prototype": {
                            "e-index-of.js": 325,
                            "last.js": 125,
                            "last-index.js": 203
                          },
                          "from.js": 199
                        },
                        "Function": {
                          "is-arguments.js": 148
                        },
                        "global.js": 71
                      }
                    },
                    "memoizee": {
                      "package.json": 73,
                      "lib": {
                        "index.js": 319,
                        "regular.js": 2666,
                        "_base.js": 614,
                        "primitive.js": 1195,
                        "ext": {
                          "dispose.js": 501,
                          "resolvers.js": 588,
                          "async.js": 1297,
                          "ref-counter.js": 441,
                          "method.js": 712,
                          "max-age.js": 829,
                          "max.js": 542
                        }
                      },
                      "node_modules": {
                        "event-emitter": {
                          "lib": {
                            "has-listeners.js": 270,
                            "_id.js": 49,
                            "core.js": 1569
                          }
                        },
                        "next-tick": {
                          "package.json": 84,
                          "lib": {
                            "next-tick.js": 242
                          }
                        }
                      }
                    }
                  }
                }
              }
            }
          }
        }
      }
    ],
    "packages/meteor-base.js": 31,
    "packages/mobile-experience.js": 37,
    "packages/diff-sequence.js": [
      2858,
      {
        "node_modules": {
          "meteor": {
            "diff-sequence": {
              "diff.js": 2488
            }
          }
        }
      }
    ],
    "packages/geojson-utils.js": [
      5183,
      {
        "node_modules": {
          "meteor": {
            "geojson-utils": {
              "main.js": 50,
              "geojson-utils.js": 4794
            }
          }
        }
      }
    ],
    "packages/id-map.js": [
      1231,
      {
        "node_modules": {
          "meteor": {
            "id-map": {
              "id-map.js": 890
            }
          }
        }
      }
    ],
    "packages/mongo-id.js": [
      1725,
      {
        "node_modules": {
          "meteor": {
            "mongo-id": {
              "id.js": 1327
            }
          }
        }
      }
    ],
    "packages/ordered-dict.js": [
      2985,
      {
        "node_modules": {
          "meteor": {
            "ordered-dict": {
              "ordered_dict.js": 2625
            }
          }
        }
      }
    ],
    "packages/minimongo.js": [
      43142,
      {
        "node_modules": {
          "meteor": {
            "minimongo": {
              "minimongo_client.js": 50,
              "common.js": 12169,
              "cursor.js": 4590,
              "local_collection.js": 19597,
              "matcher.js": 2514,
              "minimongo_common.js": 210,
              "observe_handle.js": 54,
              "sorter.js": 3149
            }
          }
        }
      }
    ],
    "packages/callback-hook.js": [
      1487,
      {
        "node_modules": {
          "meteor": {
            "callback-hook": {
              "hook.js": 1150
            }
          }
        }
      }
    ],
    "packages/reload.js": [
      1933,
      {
        "node_modules": {
          "meteor": {
            "reload": {
              "reload.js": 1610
            }
          }
        }
      }
    ],
    "packages/socket-stream-client.js": [
      37131,
      {
        "node_modules": {
          "meteor": {
            "socket-stream-client": {
              "browser.js": 2978,
              "common.js": 2468,
              "sockjs-0.3.4.js": 30629,
              "urls.js": 696
            }
          }
        }
      }
    ],
    "packages/ddp-client.js": [
      22362,
      {
        "node_modules": {
          "meteor": {
            "ddp-client": {
              "client": {
                "client.js": 136,
                "client_convenience.js": 862
              },
              "common": {
                "MethodInvoker.js": 1146,
                "livedata_connection.js": 18501,
                "namespace.js": 927
              }
            }
          }
        }
      }
    ],
    "packages/ddp.js": 78,
    "packages/ddp-server.js": 30,
    "packages/allow-deny.js": [
      5767,
      {
        "node_modules": {
          "meteor": {
            "allow-deny": {
              "allow-deny.js": 5268
            }
          }
        }
      }
    ],
    "packages/mongo.js": [
      9028,
      {
        "node_modules": {
          "meteor": {
            "mongo": {
              "local_collection_driver.js": 362,
              "collection.js": 7914
            }
          }
        }
      }
    ],
    "packages/steedos_meteor-fix.js": [
      435,
      {
        "node_modules": {
          "meteor": {
            "steedos:meteor-fix": {
              "lib": {
                "autorun.js": 33
              }
            }
          }
        }
      }
    ],
    "packages/rate-limit.js": [
      2625,
      {
        "node_modules": {
          "meteor": {
            "rate-limit": {
              "rate-limit.js": 2251
            }
          }
        }
      }
    ],
    "packages/reactive-dict.js": [
      3880,
      {
        "node_modules": {
          "meteor": {
            "reactive-dict": {
              "migration.js": 778,
              "reactive-dict.js": 2651
            }
          }
        }
      }
    ],
    "packages/reactive-var.js": 818,
    "packages/localstorage.js": 837,
    "packages/observe-sequence.js": 2935,
    "packages/deps.js": 111,
    "packages/htmljs.js": 10030,
    "packages/blaze.js": [
      39870,
      {
        "node_modules": {
          "meteor": {
            "blaze": {
              "preamble.js": 505,
              "dombackend.js": 1766,
              "domrange.js": 6005,
              "events.js": 1960,
              "attrs.js": 4036,
              "materializer.js": 2023,
              "exceptions.js": 481,
              "view.js": 9936,
              "builtins.js": 3896,
              "lookup.js": 2522,
              "template.js": 5245,
              "backcompat.js": 246
            }
          }
        }
      }
    ],
    "packages/accounts-base.js": [
      12079,
      {
        "node_modules": {
          "meteor": {
            "accounts-base": {
              "client_main.js": 224,
              "accounts_client.js": 7775,
              "accounts_common.js": 3486
            }
          }
        }
      }
    ],
    "packages/service-configuration.js": 711,
    "packages/session.js": [
      522,
      {
        "node_modules": {
          "meteor": {
            "session": {
              "session.js": 131
            }
          }
        }
      }
    ],
    "packages/shell-server.js": 32,
    "packages/spacebars.js": 2950,
    "packages/html-tools.js": 121572,
    "packages/blaze-tools.js": 14927,
    "packages/spacebars-compiler.js": 15476,
    "packages/standard-minifier-css.js": 41,
    "packages/standard-minifier-js.js": 40,
    "packages/less.js": 24,
    "packages/templating-compiler.js": 39,
    "packages/templating-runtime.js": 3095,
    "packages/templating.js": 103,
    "packages/sha.js": 2521,
    "packages/srp.js": [
      19215,
      {
        "node_modules": {
          "meteor": {
            "srp": {
              "biginteger.js": 17598,
              "srp.js": 1167
            }
          }
        }
      }
    ],
    "packages/accounts-password.js": [
      2817,
      {
        "node_modules": {
          "meteor": {
            "accounts-password": {
              "password_client.js": 2338
            }
          }
        }
      }
    ],
    "packages/accounts-ui-unstyled.js": [
      44006,
      {
        "node_modules": {
          "meteor": {
            "accounts-ui-unstyled": {
              "accounts_ui.js": 2293,
              "template.login_buttons.js": 4119,
              "template.login_buttons_single.js": 2295,
              "template.login_buttons_dropdown.js": 8654,
              "template.login_buttons_dialogs.js": 8274,
              "login_buttons_session.js": 1504,
              "login_buttons.js": 1691,
              "login_buttons_single.js": 1546,
              "login_buttons_dropdown.js": 7774,
              "login_buttons_dialogs.js": 4213
            }
          }
        }
      }
    ],
    "packages/accounts-ui.js": 31,
    "packages/tmeasday_check-npm-versions.js": [
      14367,
      {
        "node_modules": {
          "meteor": {
            "tmeasday:check-npm-versions": {
              "check-npm-versions.js": 999,
              "node_modules": {
                "semver": {
                  "package.json": 77,
                  "semver.js": 12842
                }
              }
            }
          }
        }
      }
    ],
    "packages/fourseven_scss.js": 34,
    "packages/raix_eventemitter.js": 2215,
    "packages/meteorspark_util.js": 495,
    "packages/tap_i18n.js": 725,
    "packages/raix_eventstate.js": 1009,
    "packages/raix_push.js": [
      7764,
      {
        "node_modules": {
          "meteor": {
            "raix:push": {
              "lib": {
                "common": {
                  "main.js": 538,
                  "notifications.js": 2201
                },
                "client": {
                  "browser.js": 2884,
                  "client.js": 1230
                }
              }
            }
          }
        }
      }
    ],
    "packages/meteorhacks_subs-manager.js": 3230,
    "packages/aldeed_tabular.js": 93497,
    "packages/aldeed_simple-schema.js": 34811,
    "packages/aldeed_collection2-core.js": 7007,
    "packages/aldeed_schema-index.js": 782,
    "packages/aldeed_schema-deny.js": 1085,
    "packages/aldeed_collection2.js": 38,
    "packages/livedata.js": 105,
    "packages/ui.js": 137,
    "packages/momentjs_moment.js": 48620,
    "packages/mrt_moment-timezone.js": 182140,
    "packages/aldeed_autoform.js": 129795,
    "packages/steedos_autoform-bs-datetimepicker.js": 3112,
    "packages/raix_handlebar-helpers.js": 3087,
    "packages/mpowaga_string-template.js": 949,
    "packages/steedos_creator-autoform-modals.js": 61661,
    "packages/steedos_autoform-bs-minicolors.js": 17623,
    "packages/fortawesome_fontawesome.js": 43,
    "packages/steedos_cfs-base-package.js": [
      5884,
      {
        "node_modules": {
          "meteor": {
            "steedos:cfs-base-package": {
              "polyfill.base64.js": 1706,
              "base-common.js": 3023,
              "base-client.js": 494
            }
          }
        }
      }
    ],
    "packages/mongo-livedata.js": 34,
    "packages/steedos_cfs-storage-adapter.js": [
      937,
      {
        "node_modules": {
          "meteor": {
            "steedos:cfs-storage-adapter": {
              "storageAdapter.client.js": 289
            }
          }
        }
      }
    ],
    "packages/steedos_cfs-data-man.js": [
      6364,
      {
        "node_modules": {
          "meteor": {
            "steedos:cfs-data-man": {
              "client": {
                "Blob.js": 2436,
                "data-man-api.js": 3444
              }
            }
          }
        }
      }
    ],
    "packages/steedos_cfs-file.js": [
      7707,
      {
        "node_modules": {
          "meteor": {
            "steedos:cfs-file": {
              "fsFile-common.js": 7070
            }
          }
        }
      }
    ],
    "packages/steedos_cfs-ui.js": 3909,
    "packages/mpowaga_jquery-ui-widget.js": 8242,
    "packages/mpowaga_jquery-fileupload.js": 18258,
    "packages/webapp.js": [
      650,
      {
        "node_modules": {
          "meteor": {
            "webapp": {
              "webapp_client.js": 313
            }
          }
        }
      }
    ],
    "packages/universe_i18n.js": [
      45680,
      {
        "node_modules": {
          "meteor": {
            "universe:i18n": {
              "lib": {
                "i18n.js": 7450,
                "locales.js": 32535,
                "utilities.js": 3746
              },
              "client": {
                "api.js": 1310
              }
            }
          }
        }
      }
    ],
    "packages/steedos_autoform-file.js": 8202,
    "packages/lai_collection-extensions.js": 1935,
    "packages/dburles_mongo-collection-instances.js": 615,
    "packages/rubaxa_sortable.js": 16471,
    "packages/steedos_autoform-lookup.js": [
      35992,
      {
        "node_modules": {
          "meteor": {
            "steedos:autoform-lookup": {
              "uni-selectize.js": 7881,
              "template.slds-lookup.js": 13871,
              "slds-lookup.js": 11051,
              "data-source.coffee": 2084
            }
          }
        }
      }
    ],
    "packages/steedos_autoform-tags.js": [
      2364,
      {
        "node_modules": {
          "meteor": {
            "steedos:autoform-tags": {
              "checkNpm.js": 158,
              "lib": {
                "client": {
                  "template.autoform-tags.js": 340,
                  "autoform-tags.coffee": 914
                }
              }
            }
          }
        }
      }
    ],
    "packages/steedos_autoform-dx-date-box.js": [
      3542,
      {
        "node_modules": {
          "meteor": {
            "steedos:autoform-dx-date-box": {
              "template.autoform-dx-date-box.js": 182,
              "autoform-dx-date-box.js": 2531
            }
          }
        }
      }
    ],
    "packages/vazco_universe-selectize.js": [
      16036,
      {
        "node_modules": {
          "meteor": {
            "vazco:universe-selectize": {
              "template.universe-selectize.js": 5028,
              "universe-selectize.js": 10252
            }
          }
        }
      }
    ],
    "packages/vazco_universe-autoform-select.js": [
      2683,
      {
        "node_modules": {
          "meteor": {
            "vazco:universe-autoform-select": {
              "template.universe-autoform-select.js": 1107,
              "universe-autoform-select.js": 655
            }
          }
        }
      }
    ],
    "packages/gwendall_simple-schema-i18n.js": 1207,
    "packages/steedos_toastr.js": 6065,
    "packages/kadira_flow-router.js": [
      25926,
      {
        "node_modules": {
          "meteor": {
            "kadira:flow-router": {
              "client": {
                "modules.js": 36,
                "triggers.js": 1080,
                "router.js": 6778,
                "group.js": 1064,
                "route.js": 1814,
                "_init.js": 98
              },
              "lib": {
                "router.js": 159
              },
              "node_modules": {
                "page": {
                  "package.json": 58,
                  "index.js": 4637,
                  "node_modules": {
                    "path-to-regexp": {
                      "package.json": 68,
                      "index.js": 2767,
                      "node_modules": {
                        "isarray": {
                          "package.json": 77,
                          "index.js": 114
                        }
                      }
                    }
                  }
                },
                "qs": {
                  "package.json": 76,
                  "lib": {
                    "index.js": 88,
                    "stringify.js": 1588,
                    "utils.js": 1794,
                    "parse.js": 2399
                  }
                }
              }
            }
          }
        }
      }
    ],
    "packages/kadira_blaze-layout.js": 2064,
    "packages/dburles_collection-helpers.js": 557,
    "packages/mrt_moment.js": 30,
    "packages/steedos_loaders-css.js": 39,
    "packages/matb33_collection-hooks.js": 9263,
    "packages/steedos_smsqueue.js": 36,
    "packages/flemay_less-autoprefixer.js": 44,
    "packages/steedos_ui.js": [
      11359,
      {
        "node_modules": {
          "meteor": {
            "steedos:ui": {
              "lib": {
                "Modernizr.js": 9144,
                "steedos.coffee": 684,
                "fireGlobalEvent.coffee": 142,
                "helpers.coffee": 45,
                "navigation_controller.coffee": 289
              }
            }
          }
        }
      }
    ],
    "packages/twbs_bootstrap.js": [
      404,
      {
        "node_modules": {
          "meteor": {
            "twbs:bootstrap": {
              "bootstrap.js": 56
            }
          }
        }
      }
    ],
    "packages/steedos_adminlte.js": 2801,
    "packages/steedos_i18n.js": 32,
    "packages/underscorestring_underscore.string.js": 22144,
    "packages/reywood_publish-composite.js": 165,
    "packages/percolate_migrations.js": 40,
    "packages/steedos_cfs-filesystem.js": [
      639,
      {
        "node_modules": {
          "meteor": {
            "steedos:cfs-filesystem": {
              "filesystem.client.js": 225
            }
          }
        }
      }
    ],
    "packages/steedos_cfs-standard-packages.js": 49,
    "packages/steedos_cfs-aliyun.js": [
      702,
      {
        "node_modules": {
          "meteor": {
            "steedos:cfs-aliyun": {
              "aliyun.client.js": 308
            }
          }
        }
      }
    ],
    "packages/steedos_cfs-s3.js": [
      677,
      {
        "node_modules": {
          "meteor": {
            "steedos:cfs-s3": {
              "s3.client.js": 303
            }
          }
        }
      }
    ],
    "packages/simple_json-routes.js": 38,
    "packages/steedos_ionicons.js": 36,
    "packages/steedos_theme.js": 33,
    "packages/steedos_e164-phones-countries.js": 10179,
    "packages/steedos_i18n-iso-countries.js": [
      20003,
      {
        "node_modules": {
          "meteor": {
            "steedos:i18n-iso-countries": {
              "index.js": 1798,
              "entry-node.js": 197,
              "codes.js": 8784,
              "langs": {
                "en.js": 4325,
                "zh.js": 4395
              }
            }
          }
        }
      }
    ],
    "packages/nimble_restivus.js": 35,
    "packages/steedos_logger.js": [
      7219,
      {
        "node_modules": {
          "meteor": {
            "steedos:logger": {
              "ansispan.js": 635,
              "logger.coffee": 1727,
              "client": {
                "viewLogs.coffee": 84,
                "views": {
                  "template.viewLogs.js": 1255,
                  "viewLogs.coffee": 2336
                },
                "router.coffee": 45
              }
            }
          }
        }
      }
    ],
    "packages/steedos_objects.js": [
      93446,
      {
        "node_modules": {
          "meteor": {
            "steedos:objects": {
              "core.coffee": 330,
              "coreSupport.coffee": 8614,
              "client": {
                "odata.coffee": 5440,
                "helpers.coffee": 197,
                "template.steedos_icon.js": 680,
                "steedos_icon.coffee": 858
              },
              "lib": {
                "listviews.coffee": 7463,
                "add_simple_schema_validation_error.coffee": 410,
                "field_simple_schema_validation_error.coffee": 424,
                "eval.js": 188,
                "convert.coffee": 7792,
                "formular.coffee": 1047,
                "object.coffee": 5137,
                "fields.coffee": 22135,
                "triggers.coffee": 1299,
                "permission_sets.coffee": 13235,
                "collections-client.coffee": 327,
                "actions.coffee": 6280,
                "resources.coffee": 6236,
                "record_permission.coffee": 2117
              }
            }
          }
        }
      }
    ],
    "packages/steedos_cfs-steedos-cloud.js": [
      750,
      {
        "node_modules": {
          "meteor": {
            "steedos:cfs-steedos-cloud": {
              "s3.client.js": 343
            }
          }
        }
      }
    ],
    "packages/steedos_cfs-tempstore.js": 41,
    "packages/steedos_cfs-http-methods.js": [
      559,
      {
        "node_modules": {
          "meteor": {
            "steedos:cfs-http-methods": {
              "http.methods.client.api.js": 136
            }
          }
        }
      }
    ],
    "packages/steedos_cfs-http-publish.js": 503,
    "packages/steedos_cfs-access-point.js": 2584,
    "packages/steedos_cfs-reactive-property.js": 756,
    "packages/steedos_cfs-reactive-list.js": 2470,
    "packages/steedos_cfs-power-queue.js": 6357,
    "packages/steedos_cfs-upload-http.js": 2720,
    "packages/steedos_cfs-collection.js": 5454,
    "packages/steedos_cfs-collection-filters.js": 2446,
    "packages/steedos_cfs-worker.js": 38,
    "packages/steedos_objects-core.js": [
      8293,
      {
        "node_modules": {
          "meteor": {
            "steedos:objects-core": {
              "i18n.coffee": 2791,
              "cfs": {
                "cfs.coffee": 2148,
                "cfs_fix.coffee": 361,
                "stores.coffee": 1684
              }
            }
          }
        }
      }
    ],
    "packages/steedos_objects-billing.js": [
      4167,
      {
        "node_modules": {
          "meteor": {
            "steedos:objects-billing": {
              "models": {
                "billings.coffee": 623,
                "billing_pay_records.coffee": 1212,
                "modules.coffee": 84,
                "modules_changelogs.coffee": 106,
                "users_changelogs.coffee": 472,
                "steedos_statistics.coffee": 106
              }
            }
          }
        }
      }
    ],
    "packages/steedos_base.js": [
      104478,
      {
        "node_modules": {
          "meteor": {
            "steedos:base": {
              "lib": {
                "steedos_util.js": 946,
                "core.coffee": 17589,
                "simple_schema_extend.js": 143,
                "ajax_collection.coffee": 692,
                "steedos_data_manager.js": 1656,
                "methods": {
                  "utc_offset.coffee": 99,
                  "last_logon.coffee": 349,
                  "user_add_email.coffee": 2326,
                  "user_avatar.coffee": 245,
                  "email_templates_reset.js": 1415
                },
                "steedos": {
                  "push.coffee": 302
                },
                "admin.coffee": 1738,
                "array_includes.js": 262,
                "settings.coffee": 294,
                "server_session.js": 14
              },
              "client": {
                "bootstrap.coffee": 5930,
                "collections.js": 1355,
                "lib": {
                  "printThis": {
                    "printThis.js": 3740
                  },
                  "jquery-touch-events": {
                    "jquery.mobile-events.js": 16473
                  }
                },
                "core.coffee": 935,
                "swipe.coffee": 1940,
                "admin_menu.coffee": 232,
                "api.coffee": 1355,
                "helpers.coffee": 15741,
                "tooltip.coffee": 148,
                "router.coffee": 99,
                "views": {
                  "template.app_list_box_modal.js": 1765,
                  "app_list_box_modal.coffee": 776,
                  "template.space_switcher.js": 2026,
                  "space_switcher.coffee": 689,
                  "template.quick_form_modal.js": 2990,
                  "quick_form_modal.coffee": 865,
                  "template.loading.js": 722,
                  "loading.coffee": 214,
                  "template.space_switcher_modal.js": 1727,
                  "space_switcher_modal.coffee": 1028
                },
                "subscribe.coffee": 1138,
                "my_contacts_limit.coffee": 626,
                "company.coffee": 853,
                "momentjs": {
                  "zh-cn.js": 2185
                },
                "bootstrap_3_modal.js": 527,
                "steedos": {
                  "router.coffee": 99,
                  "views": {
                    "template.404.js": 814,
                    "404.coffee": 411
                  }
                },
                "iframe": {
                  "template.master.js": 590,
                  "master.coffee": 376
                },
                "loading.coffee": 861
              },
              "tabular.coffee": 514
            }
          }
        }
      }
    ],
    "packages/steedos_jstree.js": 135068,
    "packages/steedos_datatables-extensions.js": 23753,
    "packages/steedos_qcloud-smsqueue.js": 43,
    "packages/smoral_sweetalert.js": 16953,
    "packages/peppelg_bootstrap-3-modal.js": 792,
    "packages/steedos_odata.js": [
      1362,
      {
        "node_modules": {
          "meteor": {
            "steedos:odata": {
              "core.coffee": 885
            }
          }
        }
      }
    ],
    "packages/steedos_object-database.js": [
      4569,
      {
        "node_modules": {
          "meteor": {
            "steedos:object-database": {
              "client": {
                "subscribe.coffee": 3533
              }
            }
          }
        }
      }
    ],
    "packages/steedos_mailqueue.js": 37,
    "packages/steedos_webhookqueue.js": 40,
    "packages/lamhieu_meteorx.js": 73,
    "packages/lamhieu_unblock.js": 35,
    "packages/npm-bcrypt.js": 30,
    "packages/steedos_huaweipush.js": 79,
    "packages/steedos_api.js": [
      1276,
      {
        "node_modules": {
          "meteor": {
            "steedos:api": {
              "core.coffee": 204
            }
          }
        }
      }
    ],
    "packages/meteorhacks_ssr.js": 35,
    "packages/steedos_autoform-filesize.js": [
      1617,
      {
        "node_modules": {
          "meteor": {
            "steedos:autoform-filesize": {
              "template.autoform-filesize.js": 390,
              "autoform-filesize.coffee": 347
            }
          }
        }
      }
    ],
    "packages/steedos_autoform-location.js": [
      1882,
      {
        "node_modules": {
          "meteor": {
            "steedos:autoform-location": {
              "template.autoform-location.js": 530,
              "autoform-location.coffee": 510
            }
          }
        }
      }
    ],
    "packages/chuangbo_cookie.js": 1229,
    "packages/steedos_sso.js": 1557,
    "packages/steedos_autoform.js": [
      163294,
      {
        "node_modules": {
          "meteor": {
            "steedos:autoform": {
              "client": {
                "core.coffee": 174,
                "coreform": {
                  "inputTypes": {
                    "boolean-checkbox": {
                      "template.boolean-checkbox.js": 246,
                      "boolean-checkbox.js": 430
                    },
                    "boolean-toggle": {
                      "template.boolean-toggle.js": 403,
                      "boolean-toggle.js": 426
                    },
                    "coreform-org-localdata": {
                      "template.select-orgs.js": 339,
                      "select-orgs.js": 2228
                    },
                    "coreform-org": {
                      "lib": {
                        "template.cf_organization.js": 618,
                        "cf_organization.coffee": 2194,
                        "template.cf_organization_modal.js": 3252,
                        "cf_organization_modal.coffee": 1038
                      },
                      "template.select-orgs.js": 701,
                      "select-orgs.js": 2617
                    },
                    "coreform-user-localdata": {
                      "template.select-users.js": 342,
                      "select-users.js": 2639
                    },
                    "coreform-user": {
                      "lib": {
                        "cf_data_manager.js": 8196,
                        "cf_tabular_space_user.coffee": 1622,
                        "template.cf_contact_modal.js": 6188,
                        "cf_contact_modal.coffee": 1335,
                        "template.cf_organization_list.js": 643,
                        "cf_organization_list.coffee": 1679,
                        "template.cf_space_user_list.js": 1476,
                        "cf_space_user_list.coffee": 3924,
                        "template.cf_organization_modal.js": 1484,
                        "cf_organization_modal.coffee": 385
                      },
                      "template.select-users.js": 865,
                      "select-users.js": 3378
                    },
                    "coreform-tree": {
                      "template.select-tree.js": 379,
                      "select-tree.js": 629
                    },
                    "coreform-email": {
                      "template.email.js": 1083,
                      "email.js": 327
                    },
                    "coreform-url": {
                      "template.url.js": 1078,
                      "url.js": 628
                    },
                    "coreform-widearea": {
                      "template.widearea.js": 317,
                      "widearea.coffee": 1013
                    },
                    "coreform-typeahead": {
                      "typeahead.js": {
                        "bloodhound.js": 13117,
                        "typeahead.bundle.js": 40159,
                        "typeahead.jquery.js": 27213
                      },
                      "template.af-typeahead.js": 352,
                      "af-typeahead.coffee": 1062
                    },
                    "coreform-number": {
                      "template.steedos-number.js": 295,
                      "steedos-number.coffee": 1307
                    },
                    "coreform-date-mobile": {
                      "template.date.js": 349,
                      "date.js": 896
                    },
                    "coreform-html": {
                      "template.html.js": 1006,
                      "html.js": 392
                    }
                  },
                  "components": {
                    "slds-quickForm": {
                      "template.slds-quickForm.js": 11300,
                      "slds-quickForm.coffee": 3362
                    }
                  }
                }
              }
            }
          }
        }
      }
    ],
    "packages/steedos_creator.js": [
      102685,
      {
        "node_modules": {
          "meteor": {
            "steedos:creator": {
              "core.coffee": 16330,
              "lib": {
                "apps.coffee": 121,
                "object_recent.coffee": 274,
                "filters_transform.coffee": 1169,
                "form_manager.coffee": 3749,
                "grid_export.coffee": 2282
              },
              "client": {
                "listview.coffee": 4217,
                "views": {
                  "_helpers.coffee": 1068,
                  "template.page_template.js": 196,
                  "page_template.coffee": 488,
                  "template.page_object.js": 195,
                  "page_object.coffee": 339,
                  "template.page_record_view.js": 215,
                  "page_record_view.coffee": 1554,
                  "template.page_list_view.js": 207,
                  "page_list_view.coffee": 828,
                  "template.page_related_list_view.js": 232,
                  "page_related_list_view.coffee": 882,
                  "template.app_home.js": 156,
                  "app_home.coffee": 779,
                  "template.app_iframe.js": 392,
                  "app_iframe.coffee": 978,
                  "template.page_iframe.js": 361,
                  "page_iframe.js": 882,
                  "template.initiate_approval.js": 1746,
                  "initiate_approval.coffee": 1352,
                  "template.amis_action.js": 350,
                  "amis_action.js": 3827
                },
                "layout": {
                  "template.layout.js": 1400,
                  "layout.coffee": 3728,
                  "template.loading.js": 474,
                  "template.empty_layout.js": 323
                },
                "mobile": {
                  "template.admin.js": 3159,
                  "admin.coffee": 1752,
                  "template.switch_space.js": 1249,
                  "switch_space.coffee": 591
                },
                "core.coffee": 18669,
                "colors.coffee": 1485,
                "temp_navs.coffee": 3922,
                "router.coffee": 6149,
                "tenant.coffee": 220,
                "animate.js": 405,
                "colResizable-1.6.js": 5920,
                "jquery.ba-resize.js": 1102,
                "title.coffee": 99,
                "i18n.coffee": 99
              }
            }
          }
        }
      }
    ],
    "packages/steedos_instance-record-queue.js": 49,
    "packages/steedos_formbuilder.js": [
      89454,
      {
        "node_modules": {
          "meteor": {
            "steedos:formbuilder": {
              "checkNpmClient.js": 176,
              "formbuilder": {
                "jquery-ui.min.js": 65909
              },
              "client": {
                "template.form-builder.js": 268,
                "form-builder.coffee": 1174
              },
              "core.coffee": 68,
              "lib": {
                "utils.coffee": 865,
                "transform.coffee": 4061,
                "validate.coffee": 2802,
                "options.coffee": 12826
              }
            }
          }
        }
      }
    ],
    "packages/steedos_app-workflow.js": [
      25739,
      {
        "node_modules": {
          "meteor": {
            "steedos:app-workflow": {
              "core.coffee": 1115,
              "client": {
                "template.new_flow_modal.js": 1826,
                "new_flow_modal.coffee": 1826,
                "design": {
                  "template.form_design.js": 1309,
                  "form_design.coffee": 1614
                },
                "template.admin_import_flow_modal.js": 2848,
                "admin_import_flow_modal.coffee": 2654,
                "template.copy_flow_modal.js": 1835,
                "copy_flow_modal.coffee": 842,
                "views": {
                  "flow": {
                    "template.distribute_edit_flow_modal.js": 3859,
                    "distribute_edit_flow_modal.coffee": 2089
                  }
                }
              },
              "cfs": {
                "instances.coffee": 1235
              }
            }
          }
        }
      }
    ],
    "packages/steedos_object-webhooks-queue.js": 49,
    "packages/steedos_autoform-modals.js": 20485,
    "packages/steedos_slipjs.js": 15081,
    "packages/steedos_workflow.js": [
      711848,
      {
        "node_modules": {
          "meteor": {
            "steedos:workflow": {
              "perfect-scrollbar.js": 33,
              "lib": {
                "URI.js": 28398,
                "collection_helpers.js": 14,
                "tapi18n.coffee": 99,
                "core.coffee": 1215,
                "models": {
                  "forms.coffee": 99,
                  "flows.coffee": 99,
                  "flow_roles.coffee": 99,
                  "flow_positions.coffee": 99,
                  "instance_tasks.coffee": 1517,
                  "instances.coffee": 99,
                  "categories.coffee": 99,
                  "spaces.coffee": 99,
                  "deleted_instances.coffee": 99,
                  "auth_tokens.coffee": 151,
                  "webhooks.coffee": 99,
                  "space_user_signs.coffee": 99,
                  "space_users.coffee": 99
                },
                "cfs": {
                  "instances.coffee": 99
                },
                "admin.coffee": 99
              },
              "client": {
                "api.js": 773,
                "lib": {
                  "traces_manager.coffee": 1192,
                  "instance_event.js": 1260,
                  "1_form_formula.js": 7275,
                  "2_steedos_data_format.js": 5942,
                  "approve_manager.js": 12698,
                  "instance_manager.js": 30495,
                  "uuflow_api.js": 13949,
                  "workflow_manager.js": 13054,
                  "node_manager.js": 5745,
                  "instance_readonly_template.coffee": 36031,
                  "template_manager.coffee": 5628,
                  "office_online.js": 5753,
                  "instance_number_rules.coffee": 455,
                  "instance_batch.coffee": 531,
                  "instance_macro.coffee": 764,
                  "next_step_user.coffee": 3015,
                  "workflow_layout.coffee": 1661,
                  "formula_data.coffee": 3556
                },
                "layout": {
                  "template.master_print.js": 785,
                  "master_print.coffee": 680,
                  "template.sidebar.js": 460,
                  "sidebar.coffee": 99
                },
                "views": {
                  "instance": {
                    "template.instance_print.js": 7011,
                    "instance_print.coffee": 5983,
                    "template.image_sign.js": 312,
                    "_image_sign.coffee": 586,
                    "image_sign.coffee": 145,
                    "template.traces_handler.js": 730,
                    "_traces_handler.coffee": 356,
                    "traces_handler.js": 77,
                    "_instance_form.coffee": 12945,
                    "template.instance_attachments.js": 7405,
                    "_instance_attachments.js": 5693,
                    "_instance_sign_text.coffee": 5646,
                    "template.attachments.js": 34045,
                    "attachments.js": 20502,
                    "template.force_end_modal.js": 1430,
                    "force_end_modal.js": 267,
                    "template.instance_button.js": 4549,
                    "instance_button.coffee": 16747,
                    "template.instance_form.js": 573,
                    "instance_form.coffee": 347,
                    "template.instance_form_table.js": 591,
                    "instance_form_table.coffee": 371,
                    "template.instance_view_wrapper.js": 541,
                    "instance_view_wrapper.coffee": 1218,
                    "template.instance_suggestion.js": 13122,
                    "instance_suggestion.coffee": 11902,
                    "template.instance_view.js": 4887,
                    "instance_view.coffee": 8097,
                    "template.instance_amis_view.js": 206,
                    "instance_amis_view.coffee": 401,
                    "template.reassign_modal.js": 2500,
                    "reassign_modal.js": 1453,
                    "template.relocate_modal.js": 3115,
                    "relocate_modal.js": 2291,
                    "_traces_help.coffee": 10389,
                    "template.traces.js": 12365,
                    "traces.js": 647,
                    "template.traces_table.js": 11759,
                    "traces_table.js": 671,
                    "template.traces_table_modal.js": 1666,
                    "traces_table_modal.coffee": 1997,
                    "template.trace_detail_modal.js": 20253,
                    "trace_detail_modal.js": 311,
                    "template.cc_modal.js": 2846,
                    "cc_modal.coffee": 3663,
                    "template.opinion_modal.js": 2845,
                    "opinion_modal.js": 5012,
                    "template.instance_sign_modal.js": 3843,
                    "instance_sign_modal.coffee": 2908,
                    "template.history_sign_approve.js": 2448,
                    "history_sign_approve.coffee": 1185,
                    "template.pick_approve_users.js": 4703,
                    "pick_approve_users.coffee": 4407,
                    "_related_instances.coffee": 1403,
                    "_related_records.coffee": 590,
                    "template.related_instances.js": 1434,
                    "related_instances.coffee": 513,
                    "template.related_records.js": 530,
                    "related_records.coffee": 593,
                    "template.remind_modal.js": 4407,
                    "remind_modal.coffee": 4391,
                    "template.instance_sign_text.js": 7062,
                    "instance_sign_text.coffee": 959
                  },
                  "list": {
                    "template.flow_list_box.js": 6772,
                    "flow_list_box.coffee": 2085,
                    "template.flow_list_box_modal.js": 1406,
                    "flow_list_box_modal.coffee": 630,
                    "template.flow_list_box_org.js": 1553,
                    "flow_list_box_org.coffee": 814,
                    "template.flow_list_box_org_tree.js": 279,
                    "flow_list_box_org_tree.coffee": 635,
                    "template.flow_list_box_org_modal.js": 2846,
                    "flow_list_box_org_modal.coffee": 782,
                    "template.forward_select_flow_modal.js": 5308,
                    "forward_select_flow_modal.js": 4215,
                    "template.attachments_upload_modal.js": 1216,
                    "attachments_upload_modal.coffee": 248,
                    "template.attachments_sign_modal.js": 1199,
                    "attachments_sign_modal.coffee": 244,
                    "template.instance_list_wrapper.js": 15958,
                    "instance_list_wrapper.coffee": 5979,
                    "template.instance_list.js": 4569,
                    "instance_list.coffee": 8224,
                    "template.monitor.js": 2708,
                    "monitor.js": 1163,
                    "template.related_instances_list.js": 2459,
                    "related_instances_list.coffee": 1950,
                    "template.related_instances_modal.js": 3295,
                    "related_instances_modal.coffee": 1925,
                    "template.batch_instances.js": 1389,
                    "batch_instances.coffee": 283,
                    "template.batch_instances_modal.js": 2642,
                    "batch_instances_modal.coffee": 2136,
                    "template.cancel_distribute_modal.js": 2780,
                    "cancel_distribute_modal.coffee": 2031,
                    "template.cancel_cc_modal.js": 2723,
                    "cancel_cc_modal.coffee": 1801,
                    "template.webhooks.js": 3220,
                    "webhooks.coffee": 903
                  },
                  "search": {
                    "template.instance_more_search_modal.js": 8660,
                    "instance_more_search_modal.js": 3900
                  },
                  "template.home.js": 641,
                  "home.coffee": 160,
                  "template.menu.js": 4860,
                  "menu.coffee": 594,
                  "template.workflow_menu_by_flow.js": 9397,
                  "workflow_menu_by_flow.coffee": 3883,
                  "template.workflow_tree_menu.js": 316,
                  "workflow_tree_menu.coffee": 6456,
                  "template.workflow_main.js": 597,
                  "workflow_main.coffee": 1144
                },
                "coreform": {
                  "inputTypes": {
                    "coreform-checkbox": {
                      "template.boolean-checkbox.js": 1825,
                      "boolean-checkbox.js": 663
                    },
                    "coreform-datepicker": {
                      "coreform-datepicker.js": 1215
                    },
                    "coreform-multiSelect": {
                      "template.select-checkbox-inline.js": 1923,
                      "select-checkbox-inline.js": 1047
                    },
                    "coreform-number": {
                      "template.coreform-number.js": 711,
                      "coreform-number.js": 906
                    },
                    "coreform-radio": {
                      "template.select-radio-inline.js": 1681,
                      "select-radio-inline.js": 758
                    },
                    "coreform-section": {
                      "template.steedos-section.js": 500,
                      "steedos-section.js": 772
                    },
                    "coreform-table": {
                      "template.steedos-table-modal.js": 3352,
                      "steedos-table-modal.js": 1772,
                      "template.steedos-table.js": 2115,
                      "steedos-table.js": 9436
                    },
                    "coreform-textarea": {
                      "template.coreform-textarea.js": 871,
                      "coreform-textarea.js": 1216
                    },
                    "coreform-selectize": {
                      "template.coreform-selectize.js": 871,
                      "coreform-selectize.coffee": 6010,
                      "selectize_manager.coffee": 4854
                    },
                    "steedos-field": {
                      "template.steedos-field.js": 278,
                      "steedos-field.js": 2551
                    }
                  }
                },
                "admin_menu.coffee": 363,
                "router.coffee": 3574,
                "subscribe.coffee": 3489,
                "methods": {
                  "call_statistics.coffee": 442
                }
              },
              "related_instances_tabular.coffee": 2376,
              "tabular.coffee": 15871
            }
          }
        }
      }
    ],
    "packages/steedos_workflow-chart.js": 638,
    "packages/keepnox_perfect-scrollbar.js": [
      49881,
      {
        "node_modules": {
          "meteor": {
            "keepnox:perfect-scrollbar": {
              "js": {
                "perfect-scrollbar.js": 24521,
                "perfect-scrollbar.jquery.js": 24847
              }
            }
          }
        }
      }
    ],
    "packages/jeremy_selectize.js": 46300,
    "packages/comerc_autoform-selectize.js": 6034,
    "packages/react-template-helper.js": [
      1527,
      {
        "node_modules": {
          "meteor": {
            "react-template-helper": {
              "react-template-helper.js": 957
            }
          }
        }
      }
    ],
    "packages/steedos_webkit-notification.js": [
      3939,
      {
        "node_modules": {
          "meteor": {
            "steedos:webkit-notification": {
              "server": {
                "models": {
                  "raix_push_notifications.coffee": 380
                },
                "methods": {
                  "calculate_box.coffee": 293
                }
              },
              "client": {
                "observe_notifications.coffee": 2201
              }
            }
          }
        }
      }
    ],
    "packages/steedos_api-authenticate-user.js": 49,
    "packages/steedos_records-qhd.js": 12948,
    "packages/hot-code-push.js": 33,
    "packages/launch-screen.js": 795,
    "packages/autoupdate.js": [
      2372,
      {
        "node_modules": {
          "meteor": {
            "autoupdate": {
              "autoupdate_client.js": 1890
            }
          }
        }
      }
    ],
    "app/global-imports.js": [
      3303,
      {}
    ],
    "app/app.js": [
      111982,
      {
        "imports": {
          "ui": {
            "404.html": 57,
            "template.404.js": 11447,
            "button.html": 60,
            "template.button.js": 715,
            "icon.html": 58,
            "template.icon.js": 863,
            "illustration.html": 66,
            "template.illustration.js": 9901,
            "404.js": 324,
            "button.js": 837,
            "icon.js": 1081,
            "illustration.js": 169,
            "index.js": 143
          }
        },
        "client": {
          "main.html": 22,
          "template.main.js": 4452,
          "builder": {
            "builder.js": 100
          },
          "browser.js": 399,
          "jquery-dateFormat.js": 4665,
          "layout.js": 124,
          "router.coffee": 1309,
          "tailwind.css": 14,
          "theme.less": 14,
          "main.js": 709
        },
        "app": {
          "cordova": {
            "client": {
              "index.js": 1117
            }
          }
        },
        "tailwind.config.js": 228
      }
    ],
    "packages/mdg_validation-error.js": [
      804,
      {
        "node_modules": {
          "meteor": {
            "mdg:validation-error": {
              "validation-error.js": 373
            }
          }
        }
      }
    ]
  }
}
