{
  "format": "site-archive-pre1",
  "builtBy": "Meteor METEOR@1.9.3",
  "programs": [
    {
      "name": "web.browser",
      "arch": "web.browser",
      "path": "programs/web.browser/program.json"
    },
    {
      "name": "web.browser.legacy",
      "arch": "web.browser.legacy",
      "path": "programs/web.browser.legacy/program.json"
    },
    {
      "name": "web.cordova",
      "arch": "web.cordova",
      "path": "programs/web.cordova/program.json",
      "cordovaDependencies": {
        "cordova-plugin-console": "1.1.0",
        "phonegap-plugin-push": "1.9.0",
        "cordova-plugin-device": "1.1.3",
        "cordova-plugin-whitelist": "1.3.3",
        "cordova-plugin-wkwebview-engine": "1.1.4",
        "cordova-plugin-meteor-webapp": "1.7.0",
        "cordova-plugin-statusbar": "2.2.1",
        "cordova-plugin-splashscreen": "4.0.1"
      }
    },
    {
      "name": "server",
      "arch": "os",
      "path": "programs/server/boot.js"
    }
  ],
  "meteorRelease": "METEOR@1.9.3",
  "nodeVersion": "12.16.1",
  "npmVersion": "6.13.4",
  "gitCommitHash": "3004de11bbaacd523ce42f46557b9b4406951036"
}